{
	"name": "Nouvelle collectivité",
	"conn": "libriciel",
	"database": "webgfc_libriciel",
	"login_suffix": "libriciel",
	"adresse": "836 RUE DU MAS DE VERCAHNT",
	"codepostal": "34000",
	"complementadresse": "Bâtiment le Tucano",
	"ville": "MONTPELLIER",
	"active": "true",
	"admin": {
		"nom": "AUZOLAT",
		"prenom": "Arnaud",
		"username": "admin",
		"mail": "arnaud.auzolat@libriciel.coop",
		"password": "user"
	}
}